{
    "variables": {
        "GCP_service_account_JSON_file": "./credentials/terraform-multi-providers-iaas-demo-59545404c872.json",
        "GCP_project_ID": "multi-providers-iaas-demo",
        "GCP_zone": "us-central1-a",
        "GCP_source_image": "debian-9-stretch-v20190423",
        "ssh_user": "packer"
    },
    "builders": [{
        "type": "googlecompute",
        "account_file": "{{user `GCP_service_account_JSON_file`}}",
        "project_id": "{{user `GCP_project_ID`}}",
        "source_image": "{{user `GCP_source_image`}}",
        "ssh_username": "{{user `ssh_user`}}",

        "image_description": "multi-providers IaaS demo",
        "image_family": "tgbofit-gce-multi-providers-iaas-demo",
        "image_labels": [{"owner": "thegaragebandofit", "project": "multi-providers-iaas-demo"}],
        "image_name": "tgbofit-gce-multi-providers-iaas-demo-20190513",

        "zone": "{{user `GCP_zone`}}"
    }],
    "provisioners": [{
        "type": "shell",
        "execute_command": "echo '{{user `ssh_pass`}}' | {{ .Vars }} sudo -S -E sh '{{ .Path }}'",
        "inline_shebang": "/bin/sh -x",
        "inline": [
            "apt-get update",
            "apt-get upgrade --assume-yes",
            "apt-get install --assume-yes git",
            "apt-get install --assume-yes ruby ruby-dev libssl-dev build-essential",
            "gem install sinatra",
            "gem install thin",
            "apt-get install --assume-yes python-pip",
            "pip install Flask",
            "pip install redis",
            "pip install requests",
            "apt-get install curl software-properties-common",
            "curl -sL https://deb.nodesource.com/setup_12.x | sudo bash -",
            "apt-get install -y nodejs",
            "npm install express",
            "npm install redis",
            "apt-get install --assume-yes redis-server"
        ],
        "skip_clean": false
    }]
}